"","V1","V2","V3","V4","V5","V6","V7","V8","V9","V10","V11","V12","V13","V14","V15","V16","V17","V18","V19","V20"
"Map.of.first.letter",1767449.25316456,2282828.41867955,2331128.76521061,2468450.86603605,2622346.27758611,2850889.71295069,3011180.63073857,3160579.1284377,3388763.24419114,3446205.25271417,3549714.99684529,3643063.14508046,3747349.10344828,3880822.54693739,4053170.54876063,4396253.70448046,4414392.57512315,4296528.44178082,4238879.48809524,3782970.95
"Set",8089.92405063291,9261.38969404187,10500.5932137285,11652.4208104308,13140.8294214128,13839.7706952074,14922.5498844335,15972.2842914107,16986.9310244045,18087.1156509573,19126.8343003375,20027.0820182401,21180.7310639552,22302.098207459,23626.1333453953,24889.7068636797,26663.6637931034,28156.5308219178,27547.0476190476,34010.1
"Unordered.set",956.556962025316,1003.79871175523,1166.83619344774,1342.51872683114,1456.23460211527,1599.72216960283,1767.08441654827,1835.86791710164,1977.28876223878,2118.38961797992,2224.42156235522,2360.21564416223,2488.34404165439,2692.06422563928,2784.30758096617,2936.3832221163,3076.14778325123,3162.91095890411,3362.85714285714,3390.75
"Sorted.vector",6858.92405063291,8743.35265700483,10144.0456318253,11315.2096382462,12430.1528194107,13482.1813159058,14539.7349392481,15513.8577173857,16667.903794632,17563.7784389777,18604.9993822939,19590.6449403928,20763.0960310443,21738.6725851669,22837.9889632712,24385.1067683508,25407.9556650246,26466.5273972603,26897.7738095238,27581.35
