"","A","B","C","D","E","F","G","H","I","J","K","L","M","N","O","P","Q","R","S","T","U","V","W","X","Y","Z"
"MapFirstLetter",4325339.70717138,2866286.2342652,6564166.32477039,8559784.56033828,5800455.03620803,2326712.78988053,1997065.50495049,1135037.28012602,2216100.72102877,450782.364597094,185130.80495356,1262205.28293294,2939513.80971103,759052.700922266,889777.983348751,4613132.01340238,277000.750187547,6503725.72599763,3649042.04948344,2770751.19269861,190404.485692189,1188484.68512619,55110.1449275362,22916.0305343511,68978.622327791,180894.951140065
"Set",1,1,1,1,1,1,1,1,1,1,1,1,1,1,1,1,1,1,1,1,1,1,1,1,1,1
"UnSet",2177.32039087102,2023.60851321976,2216.07067928575,2430.44562506777,2160.36866359447,1969.00913562895,2141.70297029703,2099.23864531373,2233.03352412101,1983.1571994716,2322.75541795666,1936.92360241375,2163.9473166896,1879.91718426501,1853.99321615788,2255.6807797746,2251.31282820705,2100.03457131569,2137.73779116313,1920.08919311346,2322.50580046404,2081.84268561627,2901.44927536232,0,2375.29691211401,1630.29315960912
"SortedVector",21994.026555855,21230.2209190637,23023.5675322859,25606.8524341321,22503.9631336406,21098.5242445538,20448.7128712871,20623.5232344447,23208.3550137516,18837.5165125495,17040.2476780186,19141.4095411591,21637.9988205229,19215.5091285526,19282.9170521122,22403.4724337496,21020.2550637659,23574.5505728961,21821.7757615036,21741.1844015764,17800.464037123,19984.807645185,14559.4202898551,15274.8091603053,16638.9548693587,16284.2019543974
